# week, day, timeslot, group, type, subject, room, instructor, duration, comment
30,M,M1,A,AG,Math,A1,Joe,1
30,M,M2,A,AG,Physics,A1,Bill,1
30,M,A1,A,AG,English,A1,Susan,2
30,Th,A1,A,*OFF,English,A1,Susan,2
31,M,M2,A,AG,Math,A1,Joe,1
31,M,M1,A,AG,Physics,A1,Bill,1
31,M,A2,A,AG,English,A1,Susan,2
30,F,A1,A,AG,Physics,A1,Bill,1

31,Tu,M1,A,AG,English,A1,Susan,3; duration is 3 time-slots
31,Th,M1,A,AG,English,A1,Susan,4
31,F,M1,A,AG,English,A1,Susan,5

; invalid event (4 days, no wenesday in week)
31,We,M1,A,AG,English,A1,Susan,4

; invalid event (W is not a valid code)
31,W,M1,A,AG,English,A1,Susan,4
