# copy of demoD_full.csv with some change to check sdiff program
# removed week38 and added some items on week 44
37,Th,M1,AB,TD,Physics,RR02,H. Grant,1,
37,Th,M1,CD,TD,Comp.Sci.,RB04,J. Travolta,1,
37,Th,M1,E,TD,Psychology,RR04,J. Garland,1,
37,Th,M2,E,TP,Psychology,RR04,J. Garland,1,
37,Th,M2,AB,TD,Comp.Sci.,RB04,J. Travolta,1,
37,Th,M2,CD,TD,Physics,RR02,H. Grant,1,
37,M,A1,AB,TD,Astronomy,RR02,G. Clooney,1,
37,M,A1,CD,TD,Chemistry,RB04,S. Stone,1,
37,M,A1,E,TD,Physics,RR06,H. Grant,1,
37,M,A2,AB,TD,Chemistry,RB04,S. Stone,1,
37,M,A2,E,TD,Comp.Sci.,RR07,J. Travolta,1,
37,M,A3,E,TD,Astronomy,RR02,G. Clooney,1,
37,M,A3,C,TP,Comp.Sci.,RR07,J. Travolta,2,
37,M,M1,CD,TD,Comp.Sci.,RB04,J. Travolta,1,
37,M,M1,E,TP,Physics,RR06,H. Grant,2,
37,M,M2,AB,TD,Comp.Sci.,RB04,J. Travolta,1,
37,M,M2,CD,TD,Astronomy,RR02,G. Clooney,1,
37,Tu,A1,D,TP,Comp.Sci.,RR07,J. Travolta,2,
37,Tu,A1,C,TP,Astronomy,RB01,M. Monroe,2,
37,Tu,A1,A,TP,Psychology,RB00,S. Stallone,1,
37,Tu,A2,B,TP,Psychology,RB00,S. Stallone,1,
37,Tu,A3,D,TP,Astronomy,RB01,M. Monroe,2,
37,Tu,A3,C,TP,Psychology,RB00,S. Stallone,1,
37,Tu,M1,E,TP,Astronomy,RB01,M. Monroe,2,
37,Tu,M1,AB,TD,Psychology,RR04,J. Garland,1,
37,Tu,M1,CD,TD,Sociology,RB03,S. Stallone,1,
37,Tu,M2,AB,TD,Sociology,RB03,S. Stallone,1,
37,Tu,M2,CD,TD,Psychology,RR04,J. Garland,1,
37,W,A1,AB,TD,Astronomy,RR02,G. Clooney,1,
37,W,A1,CD,TD,Chemistry,RB04,B. Bardot,1,
37,W,A1,E,TP,Sociology,RB03,S. Stallone,1,
37,W,A2,E,TD,Astronomy,RR02,G. Clooney,1,
37,W,A2,AB,TD,Chemistry,RB04,B. Bardot,1,
37,W,A2,C,TP,Sociology,RB03,S. Stallone,1,
37,W,A3,A,TP,Sociology,RB03,S. Stallone,1,
37,W,M2,CD,TD,Astronomy,RR02,G. Clooney,1,
37,W,M2,B,TP,Sociology,RB03,S. Stallone,1,
37,F,A1,A,TP,Comp.Sci.,RR07,J. Travolta,2,
37,F,A1,B,TP,Astronomy,RB00,G. Clooney,2,
37,F,A1,E,CM,Maths,RB06,R. DeNiro,2,
37,F,A1,C,TP,Physics,RB01,A. Pacino,2,
37,F,A1,D,TP,Sociology,RB03,S. Stallone,1,
37,F,A2,D,TP,Psychology,RB03,S. Stallone,1,
37,F,A3,E,TP,Maths,RB06,R. DeNiro,1,
37,F,A3,A,TP,Astronomy,RB00,G. Clooney,2,
37,F,A3,B,TP,Comp.Sci.,RR07,J. Travolta,2,
37,F,A3,D,TP,Physics,RB01,A. Pacino,2,
37,F,M1,E,TP,Comp.Sci.,RR07,J. Travolta,2,
37,F,M1,D1,CM,Astronomy,RB01,G. Clooney,1,
37,F,M2,D1,CM,Maths,RB01,R. DeNiro,1,
39,Th,A1,C,TP,Comp.Sci.,RR07,J. Travolta,2,
39,Th,A3,D,TP,Comp.Sci.,RR07,J. Travolta,2,
39,Th,M1,AB,TD,Physics,RR02,H. Grant,1,
39,Th,M1,CD,TD,Comp.Sci.,RB04,J. Travolta,1,
39,Th,M2,AB,TD,Comp.Sci.,RB04,J. Travolta,1,
39,Th,M2,CD,TD,Physics,RR02,H. Grant,1,
39,M,A1,CD,TD,Chemistry,RB04,S. Stone,1,
39,M,A1,A,TP,Psychology,RR04,J. Garland,1,
39,M,A2,AB,TD,Chemistry,RB04,S. Stone,1,
39,M,A2,C,TP,Psychology,RR04,J. Garland,1,
39,M,M1,AB,TD,Astronomy,RR02,G. Clooney,1,
39,M,M1,CD,TD,Comp.Sci.,R06,J. Travolta,1,
39,M,M2,AB,TD,Comp.Sci.,R06,J. Travolta,1,
39,Tu,A1,A,TP,Sociology,RB00,S. Stallone,1,
39,Tu,A1,C,TP,Astronomy,RB01,M. Monroe,1,
39,Tu,A1,B,TP,Psychology,RR04,J. Garland,1,
39,Tu,A2,B,TP,Sociology,RB00,S. Stallone,1,
39,Tu,A2,D,TP,Astronomy,RB01,M. Monroe,2,
39,Tu,A3,B,TP,Psychology,RB03,S. Stallone,1,
39,Tu,M1,CD,TD,Literature,RR02,H. Grant,1,
39,Tu,M1,A,TP,Psychology,RB03,S. Stallone,1,
39,Tu,M2,D,TP,Psychology,RR04,J. Garland,1,
39,Tu,M2,C,TP,Astronomy,RB01,M. Monroe,1,
39,Tu,M2,AB,TD,Literature,RR02,H. Grant,1,
39,W,A1,A,TP,Physics,RB01,H. Grant,2,
39,W,A1,B,TP,Astronomy,RB00,G. Clooney,2,
39,W,A1,D,TP,Maths,RB06,M. Douglas,2,
39,W,A2,C,TP,Psychology,RB03,S. Stallone,1,
39,W,A3,C,TP,Maths,RB06,M. Douglas,2,
39,W,A3,A,TP,Astronomy,RB00,G. Clooney,2,
39,W,A3,B,TP,Physics,RB01,H. Grant,2,
39,W,A3,D,TP,Psychology,RB03,S. Stallone,1,
39,W,M1,AB,TD,Astronomy,RR02,G. Clooney,1,
39,W,M1,CD,TD,Maths,RB04,M. Douglas,1,
39,W,M2,CD,TD,Astronomy,RR02,G. Clooney,1,
39,W,M2,AB,TD,Maths,RB04,M. Douglas,1,
39,F,A1,B,TP,Comp.Sci.,RR07,J. Travolta,2,
39,F,A1,A,TP,Maths,RB06,R. DeNiro,2,
39,F,A1,D,TP,Physics,RB01,A. Pacino,2,
39,F,A2,C,TP,Sociology,RB00,S. Stallone,1,
39,F,A3,D,TP,Sociology,RB00,S. Stallone,1,
39,F,A3,B,TP,Maths,RB06,R. DeNiro,2,
39,F,A3,A,TP,Comp.Sci.,RR07,J. Travolta,2,
39,F,A3,C,TP,Physics,RB01,A. Pacino,2,
39,F,M1,AB,TD,Maths,RR02,R. DeNiro,1,
39,F,M1,CD,TD,Engineering,RB04,J. Travolta,1,
39,F,M2,AB,TD,Engineering,RB04,J. Travolta,1,
39,F,M2,CD,TD,Maths,RR02,R. DeNiro,1,
40,Th,A1,A,TP,Sociology,RB03,S. Stallone,1,
40,Th,A1,CD,TD,Chemistry,RB04,B. Bardot,1,
40,Th,A1,E,TD,Physics,RR06,H. Grant,1,
40,Th,A2,AB,TD,Chemistry,RB04,B. Bardot,1,
40,Th,A2,D,TP,Sociology,RB03,S. Stallone,1,
40,Th,A2,E,TP,Physics,RR06,H. Grant,1,
40,Th,A3,E,TD,Chemistry,RB04,B. Bardot,1,
40,Th,M1,CD,TD,Physics,RR02,H. Grant,1,
40,Th,M1,AB,TD,Comp.Sci.,RB04,J. Travolta,1,
40,Th,M1,E,TP,Psychology,RR04,J. Garland,2,
40,Th,M2,CD,TD,Comp.Sci.,RB04,J. Travolta,1,
40,Th,M2,AB,TD,Physics,RR02,H. Grant,1,
40,M,A1,CD,TD,Chemistry,RB04,S. Stone,1,
40,M,A1,E,CM,Physics,RR06,H. Grant,1,
40,M,A1,AB,TD,Engineering,RR02,J. Travolta,1,
40,M,A2,CD,TD,Astronomy,RR02,G. Clooney,1,
40,M,A2,AB,TD,Chemistry,RB04,S. Stone,1,
40,M,A2,E,CM,Comp.Sci.,RR07,J. Travolta,1,
40,M,A3,E,TP,Comp.Sci.,RR07,J. Travolta,2,
40,M,M1,E,TP,Physics,RR06,H. Grant,2,
40,M,M2,CD,TD,Engineering,RR02,J. Travolta,1,
40,Tu,A1,C,TP,Astronomy,RB01,M. Monroe,2,
40,Tu,A1,E,CM,Comp.Sci.,RR07,J. Travolta,1,
40,Tu,A2,D,TP,Psychology,RR04,J. Garland,1,
40,Tu,A2,E,TD,Comp.Sci.,RR07,J. Travolta,1,
40,Tu,A3,C,TP,Comp.Sci.,RR07,J. Travolta,2,
40,Tu,A3,D,TP,Astronomy,RB01,M. Monroe,2,
40,Tu,M1,D,TP,Comp.Sci.,RR07,J. Travolta,2,
40,Tu,M1,E,TP,Astronomy,RB01,M. Monroe,2,
40,W,A1,B,TP,Physics,RB01,H. Grant,2,
40,W,A1,A,TP,Astronomy,RB00,G. Clooney,2,
40,W,A1,E,TP,Maths,RB06,M. Douglas,2,
40,W,A3,E,TP,Psychology,RB03,S. Stallone,2,
40,W,A3,A,TP,Physics,RB01,H. Grant,2,
40,W,A3,B,TP,Astronomy,RB00,G. Clooney,2,
40,W,M1,CD,TD,Literature,RB04,H. Grant,1,
40,W,M1,E,TD,Maths,RB06,M. Douglas,2,
40,W,M1,AB,TD,Astronomy,RR02,G. Clooney,1,
40,W,M2,AB,TD,Literature,RB04,H. Grant,1,
40,W,M2,CD,TD,Astronomy,RR02,G. Clooney,1,
40,F,A1,B,TP,Sociology,RB03,S. Stallone,1,
40,F,A1,A,TP,Comp.Sci.,RR07,J. Travolta,2,
40,F,A1,C,TP,Psychology,RR04,J. Garland,1,
40,F,A1,D,TP,Physics,RB01,A. Pacino,2,
40,F,A1,E,TD,Chemistry,RR02,B. Bardot,1,
40,F,A2,B,TP,Psychology,RR04,J. Garland,1,
40,F,A2,C,TP,Sociology,RB03,S. Stallone,1,
40,F,A2,E,CM,Maths,RB06,R. DeNiro,1,
40,F,A3,A,TP,Psychology,RR04,J. Garland,1,
40,F,A3,B,TP,Comp.Sci.,RR07,J. Travolta,2,
40,F,A3,C,TP,Physics,RB01,A. Pacino,2,
40,F,A3,E,TD,Maths,RB06,R. DeNiro,1,
40,F,M1,CD,TD,Maths,RR02,R. DeNiro,1,
40,F,M1,AB,TD,Engineering,RB04,J. Travolta,1,
40,F,M2,CD,TD,Engineering,RB04,J. Travolta,1,
40,F,M2,AB,TD,Maths,RR02,R. DeNiro,1,
41,Th,A1,A,TP,Sociology,RB03,S. Stallone,1,
41,Th,A1,B,TP,Psychology,RR04,J. Garland,1,
41,Th,A1,E,TP,Comp.Sci.,RR07,J. Travolta,2,
41,Th,A1,CD,TD,Chemistry,RB04,B. Bardot,1,
41,Th,A2,C,TP,Sociology,RB03,S. Stallone,1,
41,Th,A2,D,TP,Psychology,RR04,J. Garland,1,
41,Th,A2,AB,TD,Chemistry,RB04,B. Bardot,1,
41,Th,A3,B,TP,Comp.Sci.,RR07,J. Travolta,2, replacement of last week
41,Th,A3,E,TD,Psychology,RR04,J. Garland,1,
41,Th,M1,AB,TD,Physics,RR02,H. Grant,1,
41,Th,M1,CD,TD,Comp.Sci.,R06,J. Travolta,1,
41,Th,M1,E,TP,Literature,RB00,H. Grant,2,
41,Th,M2,AB,TD,Comp.Sci.,R06,J. Travolta,1,
41,Th,M2,CD,TD,Physics,RR02,H. Grant,1,
41,M,A1,CD,TD,Chemistry,RB04,S. Stone,1,
41,M,A1,E,CM,Physics,RR06,H. Grant,1,
41,M,A1,AB,TD,Engineering,RR02,J. Travolta,1,
41,M,A2,AB,TD,Chemistry,RB04,S. Stone,1,
41,M,A2,E,CM,Engineering,RR07,J. Travolta,1,
41,M,A3,E,CM,Comp.Sci.,RR07,J. Travolta,1,
41,M,M1,E,TP,Physics,RR06,H. Grant,2,
41,M,M1,C,TP,Psychology,RR04,J. Garland,1,
41,M,M2,CD,TD,Engineering,RR02,J. Travolta,1,
41,M,M2,A,TP,Psychology,RR04,J. Garland,1,
41,Tu,A1,D,TP,Sociology,RB03,S. Stallone,1,
41,Tu,A1,E,CM,Astronomy,RB01,M. Monroe,2,
41,Tu,A1,AB,TD,Chemistry,RB04,B. Bardot,1,
41,Tu,A2,CD,TD,Chemistry,RB04,B. Bardot,1,
41,Tu,A2,B,TP,Sociology,RB03,S. Stallone,1,
41,Tu,A3,E,TD,Chemistry,RB04,B. Bardot,1,
41,Tu,M1,E,TP,Astronomy,RB01,M. Monroe,2,
41,W,A1,D,TP,Maths,RB06,M. Douglas,2,
41,W,A1,E,CM,Literature,RB00,H. Grant,2,
41,W,A3,E,CM,Astronomy,RB00,G. Clooney,2,
41,W,A3,C,TP,Maths,RB06,M. Douglas,2,
41,W,M1,E,TP,Maths,RB06,M. Douglas,2,
41,F,A1,A,TP,Physics,RB00,H. Grant,2,
41,F,A1,B,TP,Maths,RB06,R. DeNiro,2,
41,F,A1,C,TP,Physics,RB01,A. Pacino,2,
41,F,A1,D,TP,Comp.Sci.,RR07,J. Travolta,2,
41,F,A1,E,TP,Psychology,RR04,J. Garland,1,
41,F,A2,E,TP,Sociology,RB03,S. Stallone,2,
41,F,A3,B,TP,Physics,RB00,H. Grant,2,
41,F,A3,A,TP,Maths,RB06,R. DeNiro,2,
41,F,A3,C,TP,Comp.Sci.,RR07,J. Travolta,2,
41,F,A3,D,TP,Physics,RB01,A. Pacino,2,
41,F,M1,CD,TD,Literature,RB03,H. Grant,1,
41,F,M1,AB,TD,Maths,RR02,R. DeNiro,1,
41,F,M1,E,TP,Engineering,RR07,J. Travolta,2,
41,F,M2,AB,TD,Literature,RB03,H. Grant,1,
41,F,M2,CD,TD,Maths,RR02,R. DeNiro,1,
42,Th,A1,A,TP,Sociology,RB03,S. Stallone,1,
42,Th,A1,B,TP,Psychology,RR04,J. Garland,1,
42,Th,A1,CD,TD,Chemistry,RB04,B. Bardot,1,
42,Th,A1,E,TD,Engineering,RR07,J. Travolta,2,
42,Th,A2,AB,TD,Chemistry,RB04,B. Bardot,1,
42,Th,A2,C,TP,Sociology,RB03,S. Stallone,1,
42,Th,A2,D,TP,Psychology,RR04,J. Garland,1,
42,Th,A3,E,TD,Chemistry,RB04,B. Bardot,1,
42,Th,M1,E,TP,Engineering,RR07,J. Travolta,2,
42,Th,M1,C,TP,Psychology,RR04,J. Garland,1,
42,Th,M1,D,TP,Sociology,RB03,S. Stallone,1,
42,Th,M2,A,TP,Psychology,RR04,J. Garland,1,
42,Th,M2,B,TP,Sociology,RB03,S. Stallone,1,
42,M,A1,AB,TD,Chemistry,RB04,S. Stone,1,
42,M,A1,CD,TD,Comp.Sci.,RR02,J. Travolta,1,
42,M,A1,E,TD,Literature,RB00,H. Grant,2,
42,M,A2,CD,TD,Chemistry,RB04,S. Stone,1,
42,M,A2,AB,TD,Comp.Sci.,RR02,J. Travolta,1,
42,M,A3,A,TP,Comp.Sci.,RR07,J. Travolta,2, instead of me
42,M,A3,E,TD,Astronomy,RR02,G. Clooney,1,
42,M,M1,AB,TD,Engineering,RB04,J. Travolta,1,
42,M,M1,E,TP,Literature,RB00,H. Grant,2,
42,M,M1,CD,TD,Psychology,RR04,J. Garland,1,
42,M,M2,CD,TD,Engineering,RB04,J. Travolta,1,
42,M,M2,AB,TD,Psychology,RR04,J. Garland,1,
42,Tu,A1,A,TP,Physics,RB01,H. Grant,2,
42,Tu,A1,B,TP,Engineering,RR07,J. Travolta,2,
42,Tu,A1,C,TP,Chemistry,RB00,T. Cruise,2,
42,Tu,A1,E,TD,Psychology,RR04,J. Garland,1,
42,Tu,A2,E,TP,Psychology,RR04,J. Garland,1,
42,Tu,A3,A,TP,Engineering,RR07,J. Travolta,2,
42,Tu,A3,B,TP,Physics,RB01,H. Grant,2,
42,Tu,M1,CD,TD,Physics,RR02,H. Grant,1,
42,Tu,M1,E,TP,Engineering,RR07,J. Travolta,2,
42,Tu,M1,AB,TD,Sociology,RB03,S. Stallone,1,
42,Tu,M2,AB,TD,Physics,RR02,H. Grant,1,
42,Tu,M2,CD,TD,Sociology,RB03,S. Stallone,1,
42,W,A1,D,TP,Maths,RB06,M. Douglas,2,
42,W,A1,C,TP,Literature,RB00,H. Grant,2,
42,W,A1,E,TP,Chemistry,A301,T. Cruise,2,
42,W,A1,A,TP,Chemistry,RB01,A. Jolie,2,
42,W,A3,D,TP,Chemistry,A301,T. Cruise,2,
42,W,A3,C,TP,Maths,RB06,M. Douglas,2,
42,W,A3,E,TD,Literature,RB00,H. Grant,1,
42,W,M1,D,TP,Literature,RB00,H. Grant,2,
42,W,M1,E,TP,Maths,RB06,M. Douglas,2,
42,W,M1,B,TP,Chemistry,RB01,A. Jolie,2,
42,F,A1,A,TP,Literature,RB00,H. Grant,2,
42,F,A1,B,TP,Maths,RB06,R. DeNiro,2,
42,F,A1,C,TP,Physics,RB01,A. Pacino,2,
42,F,A1,D,TP,Engineering,RR07,J. Travolta,2,
42,F,A1,E,TP,Psychology,RR04,J. Garland,1,
42,F,A2,E,TP,Sociology,RB03,S. Stallone,2,
42,F,A3,A,TP,Maths,RB06,R. DeNiro,2,
42,F,A3,B,TP,Literature,RB00,H. Grant,2,
42,F,A3,C,TP,Engineering,RR07,J. Travolta,2,
42,F,A3,D,TP,Physics,RB01,A. Pacino,2,
42,F,M1,E,TD,Maths,RB06,M. Douglas,2,
42,F,M1,AB,TD,Maths,RR02,R. DeNiro,1,
42,F,M1,CD,TD,Literature,RB03,H. Grant,1,
42,F,M2,CD,TD,Maths,RR02,R. DeNiro,1,
42,F,M2,AB,TD,Literature,RB03,H. Grant,1,
43,Th,A1,D,TP,Psychology,RR04,J. Garland,1,
43,Th,A1,A,TP,Sociology,RB03,S. Stallone,1,
43,Th,A1,B,TP,Maths,RB06,R. DeNiro,2,
43,Th,M1,A,TP,Maths,RB06,R. DeNiro,2,
43,Th,M1,D,TP,Chemistry,RB00,T. Cruise,2,
43,Th,M2,B,TP,Psychology,RR04,J. Garland,1,
43,M,A1,CD,TD,Chemistry,RB04,S. Stone,1,
43,M,A2,AB,TD,Chemistry,RB04,S. Stone,1,
43,M,A2,C,TP,Chemistry,RB00,T. Cruise,2,
43,M,A2,D,TP,Biology,A***,K. Kostner,2,
43,M,M1,AB,TD,Engineering,RB04,J. Travolta,1,
43,M,M1,CD,TD,Web Design,RR02,H. Grant,1,
43,M,M2,CD,TD,Engineering,RB04,J. Travolta,1,
43,M,M2,AB,TD,Web Design,RR02,H. Grant,1,
43,Tu,A1,A,TP,Physics,RB01,H. Grant,2,
43,Tu,A1,C,TP,Maths,RB06,M. Douglas,2,
43,Tu,A1,D,TP,Engineering,RR07,J. Travolta,2,
43,Tu,A1,B,TP,Biology,A***,K. Kostner,2,
43,Tu,A3,D,TP,Maths,RB06,M. Douglas,2,
43,Tu,A3,B,TP,Physics,RB01,H. Grant,2,
43,Tu,A3,C,TP,Engineering,RR07,J. Travolta,2,
43,Tu,A3,A,TP,Biology,A***,K. Kostner,2,
43,Tu,M1,A,TP,Psychology,RR04,J. Garland,1,
43,Tu,M1,B,TP,Sociology,RB03,S. Stallone,1,
43,Tu,M1,CD,TD,Engineering,RB04,J. Travolta,1,
43,Tu,M2,C,TP,Psychology,RR04,J. Garland,1,
43,Tu,M2,D,TP,Sociology,RB03,S. Stallone,1,
43,Tu,M2,AB,TD,Engineering,RB04,J. Travolta,1,
43,W,A1,B,TP,Engineering,RR07,J. Travolta,2,
43,W,A1,C,TP,Literature,RB00,H. Grant,2,
43,W,A1,D,TP,Maths,RB06,M. Douglas,2,
43,W,A1,A,TP,Chemistry,RB01,A. Jolie,2,
43,W,A3,A,TP,Engineering,RR07,J. Travolta,2,
43,W,A3,D,TP,Literature,RB00,H. Grant,2,
43,W,A3,C,TP,Maths,RB06,M. Douglas,2,
43,W,A3,B,TP,Chemistry,RB01,A. Jolie,2,
43,W,M1,CD,TD,Physics,R06,H. Grant,1,
43,W,M1,AB,TD,Chemistry,RB04,S. Stone,1,
43,W,M2,AB,TD,Physics,R06,H. Grant,1,
43,W,M2,CD,TD,Chemistry,RB04,S. Stone,1,
43,F,A1,C,TP,Sociology,RB03,S. Stallone,1,
43,F,A1,A,TP,Literature,RB00,H. Grant,2,
43,F,A1,B,TP,Maths,RB06,R. DeNiro,2,
43,F,A2,C,TP,Biology,A***,K. Kostner,2,
43,F,A3,A,TP,Maths,RB06,R. DeNiro,2,
43,F,A3,B,TP,Literature,RB00,H. Grant,2,
43,F,M1,AB,TD,Literature,RB04,H. Grant,1,
43,F,M1,CD,TD,Maths,RR02,R. DeNiro,1,
43,F,M2,CD,TD,Literature,RB04,H. Grant,1,
43,F,M2,AB,TD,Maths,RR02,R. DeNiro,1,

44,Th,M1,AB,TD,Physics,RR02,H. Grant,1,
44,Th,M1,CD,TD,Comp.Sci.,RB04,J. Travolta,1,
44,Th,M1,E,TD,Psychology,RR04,J. Garland,1,
44,Th,M2,E,TP,Psychology,RR04,J. Garland,1,
44,Th,M2,AB,TD,Comp.Sci.,RB04,J. Travolta,1,
44,Th,M2,CD,TD,Physics,RR02,H. Grant,1,
44,M,A1,AB,TD,Astronomy,RR02,G. Clooney,1,
44,M,A1,CD,TD,Chemistry,RB04,S. Stone,1,
44,M,A1,E,TD,Physics,RR06,H. Grant,1,
44,M,A2,AB,TD,Chemistry,RB04,S. Stone,1,
44,M,A2,E,TD,Comp.Sci.,RR07,J. Travolta,1,
44,M,A3,E,TD,Astronomy,RR02,G. Clooney,1,


